Biostat 203B Homework 2
…
##    user  system elapsed 
##   3.196   1.323   6.054

labevents_tab %>%
  as.tibble() %>%
  print(width = Inf)

## Warning: `as.tibble()` is deprecated as of tibble 2.0.0.
## Please use `as_tibble()` instead.
## The signature and semantics have changed, see `?as_tibble`.
## This warning is displayed once every 8 hours.
## Call `lifecycle::last_warnings()` to see where this warning was generated.

## # A tibble: 8,021,352 x 5
##    subject_id  hadm_id itemid charttime           valuenum
##         <int>    <int>  <int> <chr>                  <dbl>
##  1   12457441 21673651  50882 2135-08-16 23:45:00     28  
##  2   12457441 21673651  50893 2135-08-16 23:45:00      7.5
##  3   12457441 21673651  50902 2135-08-16 23:45:00     95  
##  4   12457441 21673651  50912 2135-08-16 23:45:00      0.6
##  5   12457441 21673651  50960 2135-08-16 23:45:00      1.5
##  6   12457441 21673651  50971 2135-08-16 23:45:00      3  
##  7   12457441 21673651  50983 2135-08-16 23:45:00    133  
##  8   12457441 21673651  51221 2135-08-16 23:45:00     14.8
##  9   12457441 21673651  51301 2135-08-16 23:45:00      3.3
## 10   12457441 21673651  50813 2135-08-17 00:02:00      2  
## #  with 8,021,342 more rows
…
system.time(chart_tab <- fread("chartevents_icustays.csv.gz"))

##    user  system elapsed 
##  16.972   5.931  31.092

  chart_tab %>%
  as.tibble() %>%
  print(width = Inf)

## # A tibble: 30,095,996 x 6
##    subject_id  hadm_id  stay_id charttime           itemid valuenum
##         <int>    <int>    <int> <chr>                <int>    <dbl>
##  1   10003700 28623837 35053963 2165-04-24 05:28:00 220179    152  
##  2   10003700 28623837 35053963 2165-04-24 05:28:00 220181    110  
##  3   10003700 28623837 35053963 2165-04-24 05:30:00 220045     65  
##  4   10003700 28623837 35053963 2165-04-24 05:30:00 220210     14  
##  5   10003700 28623837 35053963 2165-04-24 05:38:00 223761     97.6
##  6   10003700 28623837 35053963 2165-04-24 06:00:00 220045     56  
##  7   10003700 28623837 35053963 2165-04-24 06:00:00 220179    126  
##  8   10003700 28623837 35053963 2165-04-24 06:00:00 220181     88  
##  9   10003700 28623837 35053963 2165-04-24 06:00:00 220210     14  
## 10   10003700 28623837 35053963 2165-04-24 06:09:00 220045     55  
## #  with 30,095,986 more rows
…
#Filter first ICU stay of each unique patient
  group_by(subject_id) %>%
  slice_min(intime) %>%
#Add in admissions
  left_join(adm, by = c("subject_id", "hadm_id")) %>%
#Add in patients
  left_join(patient, by = c("subject_id")) %>% 
#Filter age > 18
  mutate(age = year(admittime) - anchor_year + anchor_age) %>%
  filter(age >= 18) %>%
  select(-age) %>%
#Add death indicator whether patient died within 30 days of admission
  mutate(d_within30 = ifelse(deathtime - intime <= 30, "Yes", "No")) %>% print()

## # A tibble: 50,048 x 33
## # Groups:   subject_id [50,048]
##    subject_id hadm_id stay_id first_careunit last_careunit intime             
##         <dbl>   <dbl>   <dbl> <chr>          <chr>         <dttm>             
##  1   10000032  2.91e7  3.75e7 Medical Inten Medical Inte 2180-07-23 14:00:00
##  2   10000980  2.69e7  3.67e7 Medical Inten Medical Inte 2189-06-27 08:42:00
##  3   10001217  2.46e7  3.03e7 Surgical Inte Surgical Int 2157-11-20 19:18:02
##  4   10001725  2.56e7  3.75e7 Medical/Surgi Medical/Surg 2110-04-11 15:52:22
##  5   10001884  2.62e7  3.18e7 Medical Inten Medical Inte 2131-01-11 04:20:05
##  6   10002013  2.36e7  3.71e7 Cardiac Vascu Cardiac Vasc 2160-05-18 10:00:53
##  7   10002155  2.38e7  3.46e7 Coronary Care Coronary Car 2129-08-04 12:45:00
##  8   10002223  2.25e7  3.99e7 Trauma SICU ( Trauma SICU  2158-01-15 08:01:49
##  9   10002428  2.87e7  3.20e7 Medical Inten Medical Inte 2156-04-12 16:24:18
## 10   10002443  2.13e7  3.52e7 Coronary Care Coronary Car 2183-10-18 00:47:00
## #  with 50,038 more rows, and 27 more variables: outtime <dttm>, los <dbl>,
## #   admittime <dttm>, dischtime <dttm>, deathtime <dttm>, admission_type <chr>,
## #   admission_location <chr>, discharge_location <chr>, insurance <chr>,
## #   language <chr>, marital_status <chr>, ethnicity <chr>, edregtime <dttm>,
## #   edouttime <dttm>, hospital_expire_flag <dbl>, admyear <dbl>,
## #   admmonth <dbl>, admday <dbl>, weekday <chr>, admhour <dbl>,
## #   deathyear <dbl>, gender <chr>, anchor_age <dbl>, anchor_year <dbl>,
## #   anchor_year_group <chr>, dod <lgl>, d_within30 <chr>
…
icu_final <- labevents_tab %>%
#Keep subject_id and hadm_id of in unique table and add in intime
  semi_join(icu_uniq, by = c("subject_id", "hadm_id")) %>%
  left_join(select(icu_uniq, subject_id, hadm_id, intime), 
            by = c("subject_id", "hadm_id")) %>%
  filter(charttime >= intime) %>% 
  group_by(subject_id, itemid) %>%
  arrange(charttime, .by_group = TRUE) %>%
  slice_head(n = 1) %>%
  select(-charttime, -intime ) %>%
  spread(key = itemid, value = valuenum) %>%
  ungroup() %>%
  rename_at(vars(as.character(labitem$itemid)), ~labitem$label) %>% print(Inf)

## # A tibble: 48,996 x 13
##    subject_id hadm_id Lactate Bicarbonate `Calcium, Total` Chloride Creatinine
##         <dbl>   <dbl>   <dbl>       <dbl>            <dbl>    <dbl>      <dbl>
##  1   10000032  2.91e7    NA            24              9.2      102        0.4
##  2   10000980  2.69e7    NA            23              9.2      103        2.2
##  3   10001217  2.46e7    NA            23              8.2      104        0.4
##  4   10001725  2.56e7    NA            24              9.1      102        0.8
##  5   10001884  2.62e7     1.7          33              9.8       96        1.1
##  6   10002013  2.36e7    NA            23             NA        106        0.9
##  7   10002155  2.38e7    NA            28              8.8      106        1.2
##  8   10002223  2.25e7    NA            26              8.7      102        0.8
##  9   10002428  2.87e7     1.5          18              7.8       98        0.9
## 10   10002443  2.13e7     1.7          20              7.6      101        0.8
## #  with 48,986 more rows, and 6 more variables: Glucose <dbl>,
## #   Magnesium <dbl>, Potassium <dbl>, Sodium <dbl>, Hematocrit <dbl>, `White
## #   Blood Cells` <dbl>
…
#Keep subject_id and hadm_id of in unique table and add in intime
  semi_join(icu_uniq, by = c("subject_id", "hadm_id")) %>%
  left_join(select(icu_uniq, subject_id, hadm_id, intime), 
            by = c("subject_id", "hadm_id")) %>%
  filter(charttime >= intime) %>% 
  group_by(subject_id, itemid) %>%
  arrange(charttime, .by_group = TRUE) %>%
  slice_head(n = 1) %>%
  select(-charttime, -intime ) %>%
  spread(key = itemid, value = valuenum) %>%
  ungroup() %>%
  rename_at(vars(as.character(chartitem$itemid)), ~chartitem$label) %>%
  print(Inf)

## # A tibble: 49,868 x 10
##    subject_id hadm_id stay_id `Heart Rate` `Arterial Blood `Arterial Blood
##         <dbl>   <dbl>   <int>        <dbl>            <dbl>            <dbl>
##  1   10001217  2.46e7  3.03e7           98               NA               NA
##  2   10001725  2.56e7  3.75e7           85               NA               NA
##  3   10001884  2.62e7  3.18e7           38               NA               NA
##  4   10002013  2.36e7  3.71e7           99               90               65
##  5   10002155  2.38e7  3.46e7           73               NA               NA
##  6   10002223  2.25e7  3.99e7           62               NA               NA
##  7   10002428  2.87e7  3.20e7          117               NA               NA
##  8   10002428  2.87e7  3.92e7           NA              102               69
##  9   10002443  2.13e7  3.52e7          106               NA               NA
## 10   10002495  2.50e7  3.25e7           83               73               57
## #  with 49,858 more rows, and 4 more variables: `Non Invasive Blood Pressure
## #   systolic` <dbl>, `Non Invasive Blood Pressure mean` <dbl>, `Respiratory
## #   Rate` <dbl>, `Temperature Fahrenheit` <dbl>

Join two tables and we are done!

icu_f <- icu_uniq %>%
  left_join(icu_final, by = c("subject_id", "hadm_id")) %>%
  left_join(icu_final_2, by = c("subject_id", "hadm_id")) %>% 
  group_by(subject_id) %>%
  arrange(intime, .by_group = TRUE) %>%
  slice_head(n = 1) %>%
  ungroup() %>% as.tibble() %>%
  print(Inf)

## # A tibble: 50,048 x 52
##    subject_id hadm_id stay_id.x first_careunit last_careunit intime             
##         <dbl>   <dbl>     <dbl> <chr>          <chr>         <dttm>             
##  1   10000032  2.91e7  37529680 Medical Inten Medical Inte 2180-07-23 14:00:00
##  2   10000980  2.69e7  36742749 Medical Inten Medical Inte 2189-06-27 08:42:00
##  3   10001217  2.46e7  30327812 Surgical Inte Surgical Int 2157-11-20 19:18:02
##  4   10001725  2.56e7  37542711 Medical/Surgi Medical/Surg 2110-04-11 15:52:22
##  5   10001884  2.62e7  31832304 Medical Inten Medical Inte 2131-01-11 04:20:05
##  6   10002013  2.36e7  37106138 Cardiac Vascu Cardiac Vasc 2160-05-18 10:00:53
##  7   10002155  2.38e7  34599502 Coronary Care Coronary Car 2129-08-04 12:45:00
##  8   10002223  2.25e7  39908879 Trauma SICU ( Trauma SICU  2158-01-15 08:01:49
##  9   10002428  2.87e7  31956612 Medical Inten Medical Inte 2156-04-12 16:24:18
## 10   10002443  2.13e7  35217462 Coronary Care Coronary Car 2183-10-18 00:47:00
## #  with 50,038 more rows, and 46 more variables: outtime <dttm>, los <dbl>,
## #   admittime <dttm>, dischtime <dttm>, deathtime <dttm>, admission_type <chr>,
## #   admission_location <chr>, discharge_location <chr>, insurance <chr>,
## #   language <chr>, marital_status <chr>, ethnicity <chr>, edregtime <dttm>,
## #   edouttime <dttm>, hospital_expire_flag <dbl>, admyear <dbl>,
## #   admmonth <dbl>, admday <dbl>, weekday <chr>, admhour <dbl>,
## #   deathyear <dbl>, gender <chr>, anchor_age <dbl>, anchor_year <dbl>,
## #   anchor_year_group <chr>, dod <lgl>, d_within30 <chr>, Lactate <dbl>,
## #   Bicarbonate <dbl>, `Calcium, Total` <dbl>, Chloride <dbl>,
…
